{	"page":8,
	"size":13,
	"totalPages":9,
	"totalItems":117,
	"data" : 
[
	{
		"id":"800000011",
		"name":"John Doe P8",
		"yearOfBirth":"1996",
		"country":"UK",
		"username":"jdoe"
	},
	{
		"id":"800000012",
		"name":"Erika Mustermann P8",
		"yearOfBirth":"1975",
		"country":"GERMANY",
		"username":"erikamustermann"
	},
	{
		"id":"800000013",
		"yearOfBirth":"1965",
		"name":"Yamada Taro P8",
		"country":"JAPAN",
		"username":"yamadat"
	},
	{
		"id":"800000014",
		"name":"Jack Smith P8",
		"yearOfBirth":"1972",
		"country":"USA",
		"username":"jasmi"
	},
	{
		"id":"800000015",
		"name":"Jan Nichts P8",
		"yearOfBirth":"1967",
		"country":"GERMANY",
		"username":"jnichts"
	},
	{
		"id":"800000016",
		"name":"Juan Nadie P8",
		"yearOfBirth":"1980",
		"country":"VENEZUELA",
		"username":"juannadie"
	},
	{
		"id":"800000017",
		"name":"Josephine Martin P8",
		"yearOfBirth":"1986",
		"country":"FRANCE",
		"username":"jmartin"
	},
	{
		"id":"800000018",
		"name":"Mario Rossi P8",
		"yearOfBirth":"1974",
		"country":"ITALY",
		"username":"mrossi"
	},
	{
		"id":"800000019",
		"name":"María García P8",
		"yearOfBirth":"1979",
		"country":"SPAIN",
		"username":"mgarcia"
	},
	{
		"id":"800000070",
		"name":"Gerardo López P8",
		"yearOfBirth":"1981",
		"country":"SPAIN",
		"username":"mlopez"
	},
	{
		"id":"800000071",
		"name":"Jane Johnson P8",
		"yearOfBirth":"1991",
		"country":"USA",
		"username":"janejohnson"
	},
	{
		"id":"800000072",
		"name":"Will O'Connor P8",
		"yearOfBirth":"1958",
		"country":"IRELAND",
		"username":"ericoconnor"
	},
	{
		"id":"800000073",
		"name":"Nobita Rio P8",
		"yearOfBirth":"1985",
		"country":"JAPAN",
		"username":"nobitar"
	}
]
}