{	"page":4,
	"size":20,
	"totalPages":6,
	"totalItems":117,
	"data" : 
[
	{
		"id":"500000019",
		"name":"María García P5",
		"yearOfBirth":"1979",
		"country":"SPAIN",
		"username":"mgarcia"
	},
	{
		"id":"500000070",
		"name":"Gerardo López P5",
		"yearOfBirth":"1981",
		"country":"SPAIN",
		"username":"mlopez"
	},
	{
		"id":"500000071",
		"name":"Jane Johnson P5",
		"yearOfBirth":"1991",
		"country":"USA",
		"username":"janejohnson"
	},
	{
		"id":"500000072",
		"name":"Will O'Connor P5",
		"yearOfBirth":"1958",
		"country":"IRELAND",
		"username":"ericoconnor"
	},
	{
		"id":"500000073",
		"name":"Nobita Rio P5",
		"yearOfBirth":"1985",
		"country":"JAPAN",
		"username":"nobitar"
	},
	{
		"id":"600000011",
		"name":"John Doe P6",
		"yearOfBirth":"1996",
		"country":"UK",
		"username":"jdoe"
	},
	{
		"id":"600000012",
		"name":"Erika Mustermann P6",
		"yearOfBirth":"1975",
		"country":"GERMANY",
		"username":"erikamustermann"
	},
	{
		"id":"600000013",
		"yearOfBirth":"1965",
		"name":"Yamada Taro P6",
		"country":"JAPAN",
		"username":"yamadat"
	},
	{
		"id":"600000014",
		"name":"Jack Smith P6",
		"yearOfBirth":"1972",
		"country":"USA",
		"username":"jasmi"
	},
	{
		"id":"600000015",
		"name":"Jan Nichts P6",
		"yearOfBirth":"1967",
		"country":"GERMANY",
		"username":"jnichts"
	},
	{
		"id":"600000016",
		"name":"Juan Nadie P6",
		"yearOfBirth":"1980",
		"country":"VENEZUELA",
		"username":"juannadie"
	},
	{
		"id":"600000017",
		"name":"Josephine Martin P6",
		"yearOfBirth":"1986",
		"country":"FRANCE",
		"username":"jmartin"
	},
	{
		"id":"600000018",
		"name":"Mario Rossi P6",
		"yearOfBirth":"1974",
		"country":"ITALY",
		"username":"mrossi"
	},
	{
		"id":"600000019",
		"name":"María García P6",
		"yearOfBirth":"1979",
		"country":"SPAIN",
		"username":"mgarcia"
	},
	{
		"id":"600000070",
		"name":"Gerardo López P6",
		"yearOfBirth":"1981",
		"country":"SPAIN",
		"username":"mlopez"
	},
	{
		"id":"600000071",
		"name":"Jane Johnson P6",
		"yearOfBirth":"1991",
		"country":"USA",
		"username":"janejohnson"
	},
	{
		"id":"600000072",
		"name":"Will O'Connor P6",
		"yearOfBirth":"1958",
		"country":"IRELAND",
		"username":"ericoconnor"
	},
	{
		"id":"600000073",
		"name":"Nobita Rio P6",
		"yearOfBirth":"1985",
		"country":"JAPAN",
		"username":"nobitar"
	},
	{
		"id":"700000011",
		"name":"John Doe P7",
		"yearOfBirth":"1996",
		"country":"UK",
		"username":"jdoe"
	},
	{
		"id":"700000012",
		"name":"Erika Mustermann P7",
		"yearOfBirth":"1975",
		"country":"GERMANY",
		"username":"erikamustermann"
	}
]
}