{
  "page": 2,
  "size": 13,
  "totalPages": 9,
  "totalItems": 117,
  "data": [
    {
      "id": "200000011",
      "name": "John Doe P2",
      "yearOfBirth": "1996",
      "country": "UK",
      "username": "jdoe"
    },
    {
      "id": "200000012",
      "name": "Erika Mustermann P2",
      "yearOfBirth": "1975",
      "country": "GERMANY",
      "username": "erikamustermann"
    },
    {
      "id": "200000013",
      "yearOfBirth": "1965",
      "name": "Yamada Taro P2",
      "country": "JAPAN",
      "username": "yamadat"
    },
    {
      "id": "200000014",
      "name": "Jack Smith P2",
      "yearOfBirth": "1972",
      "country": "USA",
      "username": "jasmi"
    },
    {
      "id": "200000015",
      "name": "Jan Nichts P2",
      "yearOfBirth": "1967",
      "country": "GERMANY",
      "username": "jnichts"
    },
    {
      "id": "200000016",
      "name": "Juan Nadie P2",
      "yearOfBirth": "1980",
      "country": "VENEZUELA",
      "username": "juannadie"
    },
    {
      "id": "200000017",
      "name": "Josephine Martin P2",
      "yearOfBirth": "1986",
      "country": "FRANCE",
      "username": "jmartin"
    },
    {
      "id": "200000018",
      "name": "Mario Rossi P2",
      "yearOfBirth": "1974",
      "country": "ITALY",
      "username": "mrossi"
    },
    {
      "id": "200000019",
      "name": "María García P2",
      "yearOfBirth": "1979",
      "country": "SPAIN",
      "username": "mgarcia"
    },
    {
      "id": "200000070",
      "name": "Gerardo López P2",
      "yearOfBirth": "1981",
      "country": "SPAIN",
      "username": "mlopez"
    },
    {
      "id": "200000071",
      "name": "Jane Johnson P2",
      "yearOfBirth": "1991",
      "country": "USA",
      "username": "janejohnson"
    },
    {
      "id": "200000072",
      "name": "Will O'Connor P2",
      "yearOfBirth": "1958",
      "country": "IRELAND",
      "username": "ericoconnor"
    },
    {
      "id": "200000073",
      "name": "Nobita Rio P2",
      "yearOfBirth": "1985",
      "country": "JAPAN",
      "username": "nobitar"
    }
  ]
}