{
  "page": 5,
  "size": 13,
  "totalPages": 9,
  "totalItems": 117,
  "data": [
    {
      "id": "500000011",
      "name": "John Doe P5",
      "yearOfBirth": "1996",
      "country": "UK",
      "username": "jdoe"
    },
    {
      "id": "500000012",
      "name": "Erika Mustermann P5",
      "yearOfBirth": "1975",
      "country": "GERMANY",
      "username": "erikamustermann"
    },
    {
      "id": "500000013",
      "yearOfBirth": "1965",
      "name": "Yamada Taro P5",
      "country": "JAPAN",
      "username": "yamadat"
    },
    {
      "id": "500000014",
      "name": "Jack Smith P5",
      "yearOfBirth": "1972",
      "country": "USA",
      "username": "jasmi"
    },
    {
      "id": "500000015",
      "name": "Jan Nichts P5",
      "yearOfBirth": "1967",
      "country": "GERMANY",
      "username": "jnichts"
    },
    {
      "id": "500000016",
      "name": "Juan Nadie P5",
      "yearOfBirth": "1980",
      "country": "VENEZUELA",
      "username": "juannadie"
    },
    {
      "id": "500000017",
      "name": "Josephine Martin P5",
      "yearOfBirth": "1986",
      "country": "FRANCE",
      "username": "jmartin"
    },
    {
      "id": "500000018",
      "name": "Mario Rossi P5",
      "yearOfBirth": "1974",
      "country": "ITALY",
      "username": "mrossi"
    },
    {
      "id": "500000019",
      "name": "María García P5",
      "yearOfBirth": "1979",
      "country": "SPAIN",
      "username": "mgarcia"
    },
    {
      "id": "500000070",
      "name": "Gerardo López P5",
      "yearOfBirth": "1981",
      "country": "SPAIN",
      "username": "mlopez"
    },
    {
      "id": "500000071",
      "name": "Jane Johnson P5",
      "yearOfBirth": "1991",
      "country": "USA",
      "username": "janejohnson"
    },
    {
      "id": "500000072",
      "name": "Will O'Connor P5",
      "yearOfBirth": "1958",
      "country": "IRELAND",
      "username": "ericoconnor"
    },
    {
      "id": "500000073",
      "name": "Nobita Rio P5",
      "yearOfBirth": "1985",
      "country": "JAPAN",
      "username": "nobitar"
    }
  ]
}